
                                          
  /\/\   __ _ _ __   __ _  __ _  ___ _ __ 
 /    \ / _` | '_ \ / _` |/ _` |/ _ \ '__|
/ /\/\ \ (_| | | | | (_| | (_| |  __/ |   
\/    \/\__,_|_| |_|\__,_|\__, |\___|_|   
                          |___/           
   __ _ _                                 
  / /(_) |__  _ __ __ _ _ __ _   _        
 / / | | '_ \| '__/ _` | '__| | | |       
/ /__| | |_) | | | (_| | |  | |_| |       
\____/_|_.__/|_|  \__,_|_|   \__, |       
                             |___/        
