
   _____ _                              _______ _          
  / ____| |                            |__   __| |         
 | |    | |__   __ _ _ __   __ _  ___     | |  | |__   ___ 
 | |    | '_ \ / _` | '_ \ / _` |/ _ \    | |  | '_ \ / _ \
 | |____| | | | (_| | | | | (_| |  __/    | |  | | | |  __/
  \_____|_| |_|\__,_|_| |_|\__, |\___|    |_|  |_| |_|\___|
                            __/ |                          
                           |___/                           
    _____                                    _             
   |  __ \                                  | |            
   | |__) |_ _ ___ _____      _____  _ __ __| |            
   |  ___/ _` / __/ __\ \ /\ / / _ \| '__/ _` |            
   | |  | (_| \__ \__ \\ V  V / (_) | | | (_| |            
   |_|   \__,_|___/___/ \_/\_/ \___/|_|  \__,_|            
                                                           
                                                           
